hw3_2/dump.vcd
$date
	Fri Feb 15 13:57:12 2019
$end
$version
	ModelSim Version 10.7c
$end
$timescale
	1ns
$end

$scope module rca_16b_bench $end
$var reg 17 ! A [16:0] $end
$var reg 17 " B [16:0] $end
$var reg 17 # Sumcalc [16:0] $end
$var reg 1 $ C_in $end
$var wire 1 % SUM [15] $end
$var wire 1 & SUM [14] $end
$var wire 1 ' SUM [13] $end
$var wire 1 ( SUM [12] $end
$var wire 1 ) SUM [11] $end
$var wire 1 * SUM [10] $end
$var wire 1 + SUM [9] $end
$var wire 1 , SUM [8] $end
$var wire 1 - SUM [7] $end
$var wire 1 . SUM [6] $end
$var wire 1 / SUM [5] $end
$var wire 1 0 SUM [4] $end
$var wire 1 1 SUM [3] $end
$var wire 1 2 SUM [2] $end
$var wire 1 3 SUM [1] $end
$var wire 1 4 SUM [0] $end
$var wire 1 5 CO $end
$var wire 1 6 Clk $end
$var wire 1 7 rst $end
$var wire 1 8 err $end

$scope module my_clkrst $end
$var reg 1 9 clk $end
$var reg 1 : rst $end
$var wire 1 8 err $end
$var integer 32 ; cycle_count $end
$upscope $end

$scope module DUT $end
$var parameter 32 < N $end
$var wire 1 = A [15] $end
$var wire 1 > A [14] $end
$var wire 1 ? A [13] $end
$var wire 1 @ A [12] $end
$var wire 1 A A [11] $end
$var wire 1 B A [10] $end
$var wire 1 C A [9] $end
$var wire 1 D A [8] $end
$var wire 1 E A [7] $end
$var wire 1 F A [6] $end
$var wire 1 G A [5] $end
$var wire 1 H A [4] $end
$var wire 1 I A [3] $end
$var wire 1 J A [2] $end
$var wire 1 K A [1] $end
$var wire 1 L A [0] $end
$var wire 1 M B [15] $end
$var wire 1 N B [14] $end
$var wire 1 O B [13] $end
$var wire 1 P B [12] $end
$var wire 1 Q B [11] $end
$var wire 1 R B [10] $end
$var wire 1 S B [9] $end
$var wire 1 T B [8] $end
$var wire 1 U B [7] $end
$var wire 1 V B [6] $end
$var wire 1 W B [5] $end
$var wire 1 X B [4] $end
$var wire 1 Y B [3] $end
$var wire 1 Z B [2] $end
$var wire 1 [ B [1] $end
$var wire 1 \ B [0] $end
$var wire 1 ] C_in $end
$var wire 1 % S [15] $end
$var wire 1 & S [14] $end
$var wire 1 ' S [13] $end
$var wire 1 ( S [12] $end
$var wire 1 ) S [11] $end
$var wire 1 * S [10] $end
$var wire 1 + S [9] $end
$var wire 1 , S [8] $end
$var wire 1 - S [7] $end
$var wire 1 . S [6] $end
$var wire 1 / S [5] $end
$var wire 1 0 S [4] $end
$var wire 1 1 S [3] $end
$var wire 1 2 S [2] $end
$var wire 1 3 S [1] $end
$var wire 1 4 S [0] $end
$var wire 1 5 C_out $end
$var wire 1 ^ cout [2] $end
$var wire 1 _ cout [1] $end
$var wire 1 ` cout [0] $end

$scope module byte0 $end
$var parameter 32 a N $end
$var wire 1 I A [3] $end
$var wire 1 J A [2] $end
$var wire 1 K A [1] $end
$var wire 1 L A [0] $end
$var wire 1 Y B [3] $end
$var wire 1 Z B [2] $end
$var wire 1 [ B [1] $end
$var wire 1 \ B [0] $end
$var wire 1 ] C_in $end
$var wire 1 1 S [3] $end
$var wire 1 2 S [2] $end
$var wire 1 3 S [1] $end
$var wire 1 4 S [0] $end
$var wire 1 ` C_out $end
$var wire 1 b cout [2] $end
$var wire 1 c cout [1] $end
$var wire 1 d cout [0] $end

$scope module bit0 $end
$var wire 1 L A $end
$var wire 1 \ B $end
$var wire 1 ] C_in $end
$var wire 1 4 S $end
$var wire 1 d C_out $end
$var wire 1 e a_xor_b $end
$var wire 1 f a_nand_b $end
$var wire 1 g ab_nand_c $end

$scope module xor_ab $end
$var wire 1 L in1 $end
$var wire 1 \ in2 $end
$var wire 1 e out $end
$upscope $end

$scope module xor_abc $end
$var wire 1 e in1 $end
$var wire 1 ] in2 $end
$var wire 1 4 out $end
$upscope $end

$scope module nand_ab $end
$var wire 1 L in1 $end
$var wire 1 \ in2 $end
$var wire 1 f out $end
$upscope $end

$scope module nand_p $end
$var wire 1 e in1 $end
$var wire 1 ] in2 $end
$var wire 1 g out $end
$upscope $end

$scope module nand_co $end
$var wire 1 f in1 $end
$var wire 1 g in2 $end
$var wire 1 d out $end
$upscope $end
$upscope $end

$scope module bit1 $end
$var wire 1 K A $end
$var wire 1 [ B $end
$var wire 1 d C_in $end
$var wire 1 3 S $end
$var wire 1 c C_out $end
$var wire 1 h a_xor_b $end
$var wire 1 i a_nand_b $end
$var wire 1 j ab_nand_c $end

$scope module xor_ab $end
$var wire 1 K in1 $end
$var wire 1 [ in2 $end
$var wire 1 h out $end
$upscope $end

$scope module xor_abc $end
$var wire 1 h in1 $end
$var wire 1 d in2 $end
$var wire 1 3 out $end
$upscope $end

$scope module nand_ab $end
$var wire 1 K in1 $end
$var wire 1 [ in2 $end
$var wire 1 i out $end
$upscope $end

$scope module nand_p $end
$var wire 1 h in1 $end
$var wire 1 d in2 $end
$var wire 1 j out $end
$upscope $end

$scope module nand_co $end
$var wire 1 i in1 $end
$var wire 1 j in2 $end
$var wire 1 c out $end
$upscope $end
$upscope $end

$scope module bit2 $end
$var wire 1 J A $end
$var wire 1 Z B $end
$var wire 1 c C_in $end
$var wire 1 2 S $end
$var wire 1 b C_out $end
$var wire 1 k a_xor_b $end
$var wire 1 l a_nand_b $end
$var wire 1 m ab_nand_c $end

$scope module xor_ab $end
$var wire 1 J in1 $end
$var wire 1 Z in2 $end
$var wire 1 k out $end
$upscope $end

$scope module xor_abc $end
$var wire 1 k in1 $end
$var wire 1 c in2 $end
$var wire 1 2 out $end
$upscope $end

$scope module nand_ab $end
$var wire 1 J in1 $end
$var wire 1 Z in2 $end
$var wire 1 l out $end
$upscope $end

$scope module nand_p $end
$var wire 1 k in1 $end
$var wire 1 c in2 $end
$var wire 1 m out $end
$upscope $end

$scope module nand_co $end
$var wire 1 l in1 $end
$var wire 1 m in2 $end
$var wire 1 b out $end
$upscope $end
$upscope $end

$scope module bit3 $end
$var wire 1 I A $end
$var wire 1 Y B $end
$var wire 1 b C_in $end
$var wire 1 1 S $end
$var wire 1 ` C_out $end
$var wire 1 n a_xor_b $end
$var wire 1 o a_nand_b $end
$var wire 1 p ab_nand_c $end

$scope module xor_ab $end
$var wire 1 I in1 $end
$var wire 1 Y in2 $end
$var wire 1 n out $end
$upscope $end

$scope module xor_abc $end
$var wire 1 n in1 $end
$var wire 1 b in2 $end
$var wire 1 1 out $end
$upscope $end

$scope module nand_ab $end
$var wire 1 I in1 $end
$var wire 1 Y in2 $end
$var wire 1 o out $end
$upscope $end

$scope module nand_p $end
$var wire 1 n in1 $end
$var wire 1 b in2 $end
$var wire 1 p out $end
$upscope $end

$scope module nand_co $end
$var wire 1 o in1 $end
$var wire 1 p in2 $end
$var wire 1 ` out $end
$upscope $end
$upscope $end
$upscope $end

$scope module byte1 $end
$var parameter 32 q N $end
$var wire 1 E A [3] $end
$var wire 1 F A [2] $end
$var wire 1 G A [1] $end
$var wire 1 H A [0] $end
$var wire 1 U B [3] $end
$var wire 1 V B [2] $end
$var wire 1 W B [1] $end
$var wire 1 X B [0] $end
$var wire 1 ` C_in $end
$var wire 1 - S [3] $end
$var wire 1 . S [2] $end
$var wire 1 / S [1] $end
$var wire 1 0 S [0] $end
$var wire 1 _ C_out $end
$var wire 1 r cout [2] $end
$var wire 1 s cout [1] $end
$var wire 1 t cout [0] $end

$scope module bit0 $end
$var wire 1 H A $end
$var wire 1 X B $end
$var wire 1 ` C_in $end
$var wire 1 0 S $end
$var wire 1 t C_out $end
$var wire 1 u a_xor_b $end
$var wire 1 v a_nand_b $end
$var wire 1 w ab_nand_c $end

$scope module xor_ab $end
$var wire 1 H in1 $end
$var wire 1 X in2 $end
$var wire 1 u out $end
$upscope $end

$scope module xor_abc $end
$var wire 1 u in1 $end
$var wire 1 ` in2 $end
$var wire 1 0 out $end
$upscope $end

$scope module nand_ab $end
$var wire 1 H in1 $end
$var wire 1 X in2 $end
$var wire 1 v out $end
$upscope $end

$scope module nand_p $end
$var wire 1 u in1 $end
$var wire 1 ` in2 $end
$var wire 1 w out $end
$upscope $end

$scope module nand_co $end
$var wire 1 v in1 $end
$var wire 1 w in2 $end
$var wire 1 t out $end
$upscope $end
$upscope $end

$scope module bit1 $end
$var wire 1 G A $end
$var wire 1 W B $end
$var wire 1 t C_in $end
$var wire 1 / S $end
$var wire 1 s C_out $end
$var wire 1 x a_xor_b $end
$var wire 1 y a_nand_b $end
$var wire 1 z ab_nand_c $end

$scope module xor_ab $end
$var wire 1 G in1 $end
$var wire 1 W in2 $end
$var wire 1 x out $end
$upscope $end

$scope module xor_abc $end
$var wire 1 x in1 $end
$var wire 1 t in2 $end
$var wire 1 / out $end
$upscope $end

$scope module nand_ab $end
$var wire 1 G in1 $end
$var wire 1 W in2 $end
$var wire 1 y out $end
$upscope $end

$scope module nand_p $end
$var wire 1 x in1 $end
$var wire 1 t in2 $end
$var wire 1 z out $end
$upscope $end

$scope module nand_co $end
$var wire 1 y in1 $end
$var wire 1 z in2 $end
$var wire 1 s out $end
$upscope $end
$upscope $end

$scope module bit2 $end
$var wire 1 F A $end
$var wire 1 V B $end
$var wire 1 s C_in $end
$var wire 1 . S $end
$var wire 1 r C_out $end
$var wire 1 { a_xor_b $end
$var wire 1 | a_nand_b $end
$var wire 1 } ab_nand_c $end

$scope module xor_ab $end
$var wire 1 F in1 $end
$var wire 1 V in2 $end
$var wire 1 { out $end
$upscope $end

$scope module xor_abc $end
$var wire 1 { in1 $end
$var wire 1 s in2 $end
$var wire 1 . out $end
$upscope $end

$scope module nand_ab $end
$var wire 1 F in1 $end
$var wire 1 V in2 $end
$var wire 1 | out $end
$upscope $end

$scope module nand_p $end
$var wire 1 { in1 $end
$var wire 1 s in2 $end
$var wire 1 } out $end
$upscope $end

$scope module nand_co $end
$var wire 1 | in1 $end
$var wire 1 } in2 $end
$var wire 1 r out $end
$upscope $end
$upscope $end

$scope module bit3 $end
$var wire 1 E A $end
$var wire 1 U B $end
$var wire 1 r C_in $end
$var wire 1 - S $end
$var wire 1 _ C_out $end
$var wire 1 ~ a_xor_b $end
$var wire 1 !! a_nand_b $end
$var wire 1 "! ab_nand_c $end

$scope module xor_ab $end
$var wire 1 E in1 $end
$var wire 1 U in2 $end
$var wire 1 ~ out $end
$upscope $end

$scope module xor_abc $end
$var wire 1 ~ in1 $end
$var wire 1 r in2 $end
$var wire 1 - out $end
$upscope $end

$scope module nand_ab $end
$var wire 1 E in1 $end
$var wire 1 U in2 $end
$var wire 1 !! out $end
$upscope $end

$scope module nand_p $end
$var wire 1 ~ in1 $end
$var wire 1 r in2 $end
$var wire 1 "! out $end
$upscope $end

$scope module nand_co $end
$var wire 1 !! in1 $end
$var wire 1 "! in2 $end
$var wire 1 _ out $end
$upscope $end
$upscope $end
$upscope $end

$scope module byte2 $end
$var parameter 32 #! N $end
$var wire 1 A A [3] $end
$var wire 1 B A [2] $end
$var wire 1 C A [1] $end
$var wire 1 D A [0] $end
$var wire 1 Q B [3] $end
$var wire 1 R B [2] $end
$var wire 1 S B [1] $end
$var wire 1 T B [0] $end
$var wire 1 _ C_in $end
$var wire 1 ) S [3] $end
$var wire 1 * S [2] $end
$var wire 1 + S [1] $end
$var wire 1 , S [0] $end
$var wire 1 ^ C_out $end
$var wire 1 $! cout [2] $end
$var wire 1 %! cout [1] $end
$var wire 1 &! cout [0] $end

$scope module bit0 $end
$var wire 1 D A $end
$var wire 1 T B $end
$var wire 1 _ C_in $end
$var wire 1 , S $end
$var wire 1 &! C_out $end
$var wire 1 '! a_xor_b $end
$var wire 1 (! a_nand_b $end
$var wire 1 )! ab_nand_c $end

$scope module xor_ab $end
$var wire 1 D in1 $end
$var wire 1 T in2 $end
$var wire 1 '! out $end
$upscope $end

$scope module xor_abc $end
$var wire 1 '! in1 $end
$var wire 1 _ in2 $end
$var wire 1 , out $end
$upscope $end

$scope module nand_ab $end
$var wire 1 D in1 $end
$var wire 1 T in2 $end
$var wire 1 (! out $end
$upscope $end

$scope module nand_p $end
$var wire 1 '! in1 $end
$var wire 1 _ in2 $end
$var wire 1 )! out $end
$upscope $end

$scope module nand_co $end
$var wire 1 (! in1 $end
$var wire 1 )! in2 $end
$var wire 1 &! out $end
$upscope $end
$upscope $end

$scope module bit1 $end
$var wire 1 C A $end
$var wire 1 S B $end
$var wire 1 &! C_in $end
$var wire 1 + S $end
$var wire 1 %! C_out $end
$var wire 1 *! a_xor_b $end
$var wire 1 +! a_nand_b $end
$var wire 1 ,! ab_nand_c $end

$scope module xor_ab $end
$var wire 1 C in1 $end
$var wire 1 S in2 $end
$var wire 1 *! out $end
$upscope $end

$scope module xor_abc $end
$var wire 1 *! in1 $end
$var wire 1 &! in2 $end
$var wire 1 + out $end
$upscope $end

$scope module nand_ab $end
$var wire 1 C in1 $end
$var wire 1 S in2 $end
$var wire 1 +! out $end
$upscope $end

$scope module nand_p $end
$var wire 1 *! in1 $end
$var wire 1 &! in2 $end
$var wire 1 ,! out $end
$upscope $end

$scope module nand_co $end
$var wire 1 +! in1 $end
$var wire 1 ,! in2 $end
$var wire 1 %! out $end
$upscope $end
$upscope $end

$scope module bit2 $end
$var wire 1 B A $end
$var wire 1 R B $end
$var wire 1 %! C_in $end
$var wire 1 * S $end
$var wire 1 $! C_out $end
$var wire 1 -! a_xor_b $end
$var wire 1 .! a_nand_b $end
$var wire 1 /! ab_nand_c $end

$scope module xor_ab $end
$var wire 1 B in1 $end
$var wire 1 R in2 $end
$var wire 1 -! out $end
$upscope $end

$scope module xor_abc $end
$var wire 1 -! in1 $end
$var wire 1 %! in2 $end
$var wire 1 * out $end
$upscope $end

$scope module nand_ab $end
$var wire 1 B in1 $end
$var wire 1 R in2 $end
$var wire 1 .! out $end
$upscope $end

$scope module nand_p $end
$var wire 1 -! in1 $end
$var wire 1 %! in2 $end
$var wire 1 /! out $end
$upscope $end

$scope module nand_co $end
$var wire 1 .! in1 $end
$var wire 1 /! in2 $end
$var wire 1 $! out $end
$upscope $end
$upscope $end

$scope module bit3 $end
$var wire 1 A A $end
$var wire 1 Q B $end
$var wire 1 $! C_in $end
$var wire 1 ) S $end
$var wire 1 ^ C_out $end
$var wire 1 0! a_xor_b $end
$var wire 1 1! a_nand_b $end
$var wire 1 2! ab_nand_c $end

$scope module xor_ab $end
$var wire 1 A in1 $end
$var wire 1 Q in2 $end
$var wire 1 0! out $end
$upscope $end

$scope module xor_abc $end
$var wire 1 0! in1 $end
$var wire 1 $! in2 $end
$var wire 1 ) out $end
$upscope $end

$scope module nand_ab $end
$var wire 1 A in1 $end
$var wire 1 Q in2 $end
$var wire 1 1! out $end
$upscope $end

$scope module nand_p $end
$var wire 1 0! in1 $end
$var wire 1 $! in2 $end
$var wire 1 2! out $end
$upscope $end

$scope module nand_co $end
$var wire 1 1! in1 $end
$var wire 1 2! in2 $end
$var wire 1 ^ out $end
$upscope $end
$upscope $end
$upscope $end

$scope module byte3 $end
$var parameter 32 3! N $end
$var wire 1 = A [3] $end
$var wire 1 > A [2] $end
$var wire 1 ? A [1] $end
$var wire 1 @ A [0] $end
$var wire 1 M B [3] $end
$var wire 1 N B [2] $end
$var wire 1 O B [1] $end
$var wire 1 P B [0] $end
$var wire 1 ^ C_in $end
$var wire 1 % S [3] $end
$var wire 1 & S [2] $end
$var wire 1 ' S [1] $end
$var wire 1 ( S [0] $end
$var wire 1 5 C_out $end
$var wire 1 4! cout [2] $end
$var wire 1 5! cout [1] $end
$var wire 1 6! cout [0] $end

$scope module bit0 $end
$var wire 1 @ A $end
$var wire 1 P B $end
$var wire 1 ^ C_in $end
$var wire 1 ( S $end
$var wire 1 6! C_out $end
$var wire 1 7! a_xor_b $end
$var wire 1 8! a_nand_b $end
$var wire 1 9! ab_nand_c $end

$scope module xor_ab $end
$var wire 1 @ in1 $end
$var wire 1 P in2 $end
$var wire 1 7! out $end
$upscope $end

$scope module xor_abc $end
$var wire 1 7! in1 $end
$var wire 1 ^ in2 $end
$var wire 1 ( out $end
$upscope $end

$scope module nand_ab $end
$var wire 1 @ in1 $end
$var wire 1 P in2 $end
$var wire 1 8! out $end
$upscope $end

$scope module nand_p $end
$var wire 1 7! in1 $end
$var wire 1 ^ in2 $end
$var wire 1 9! out $end
$upscope $end

$scope module nand_co $end
$var wire 1 8! in1 $end
$var wire 1 9! in2 $end
$var wire 1 6! out $end
$upscope $end
$upscope $end

$scope module bit1 $end
$var wire 1 ? A $end
$var wire 1 O B $end
$var wire 1 6! C_in $end
$var wire 1 ' S $end
$var wire 1 5! C_out $end
$var wire 1 :! a_xor_b $end
$var wire 1 ;! a_nand_b $end
$var wire 1 <! ab_nand_c $end

$scope module xor_ab $end
$var wire 1 ? in1 $end
$var wire 1 O in2 $end
$var wire 1 :! out $end
$upscope $end

$scope module xor_abc $end
$var wire 1 :! in1 $end
$var wire 1 6! in2 $end
$var wire 1 ' out $end
$upscope $end

$scope module nand_ab $end
$var wire 1 ? in1 $end
$var wire 1 O in2 $end
$var wire 1 ;! out $end
$upscope $end

$scope module nand_p $end
$var wire 1 :! in1 $end
$var wire 1 6! in2 $end
$var wire 1 <! out $end
$upscope $end

$scope module nand_co $end
$var wire 1 ;! in1 $end
$var wire 1 <! in2 $end
$var wire 1 5! out $end
$upscope $end
$upscope $end

$scope module bit2 $end
$var wire 1 > A $end
$var wire 1 N B $end
$var wire 1 5! C_in $end
$var wire 1 & S $end
$var wire 1 4! C_out $end
$var wire 1 =! a_xor_b $end
$var wire 1 >! a_nand_b $end
$var wire 1 ?! ab_nand_c $end

$scope module xor_ab $end
$var wire 1 > in1 $end
$var wire 1 N in2 $end
$var wire 1 =! out $end
$upscope $end

$scope module xor_abc $end
$var wire 1 =! in1 $end
$var wire 1 5! in2 $end
$var wire 1 & out $end
$upscope $end

$scope module nand_ab $end
$var wire 1 > in1 $end
$var wire 1 N in2 $end
$var wire 1 >! out $end
$upscope $end

$scope module nand_p $end
$var wire 1 =! in1 $end
$var wire 1 5! in2 $end
$var wire 1 ?! out $end
$upscope $end

$scope module nand_co $end
$var wire 1 >! in1 $end
$var wire 1 ?! in2 $end
$var wire 1 4! out $end
$upscope $end
$upscope $end

$scope module bit3 $end
$var wire 1 = A $end
$var wire 1 M B $end
$var wire 1 4! C_in $end
$var wire 1 % S $end
$var wire 1 5 C_out $end
$var wire 1 @! a_xor_b $end
$var wire 1 A! a_nand_b $end
$var wire 1 B! ab_nand_c $end

$scope module xor_ab $end
$var wire 1 = in1 $end
$var wire 1 M in2 $end
$var wire 1 @! out $end
$upscope $end

$scope module xor_abc $end
$var wire 1 @! in1 $end
$var wire 1 4! in2 $end
$var wire 1 % out $end
$upscope $end

$scope module nand_ab $end
$var wire 1 = in1 $end
$var wire 1 M in2 $end
$var wire 1 A! out $end
$upscope $end

$scope module nand_p $end
$var wire 1 @! in1 $end
$var wire 1 4! in2 $end
$var wire 1 B! out $end
$upscope $end

$scope module nand_co $end
$var wire 1 A! in1 $end
$var wire 1 B! in2 $end
$var wire 1 5 out $end
$upscope $end
$upscope $end
$upscope $end
$upscope $end
$upscope $end
$enddefinitions $end
#0
$dumpvars
b11010100100100 !
b101111010000001 "
bx #
1$
19
1:
b10000 <
b100 a
b100 q
b100 #!
b100 3!
b1 ;
04
13
12
01
00
1/
0.
1-
1,
1+
0*
0)
1(
0'
0&
1%
05
16
17
z8
0`
0_
1^
1d
0c
0b
1e
1f
0g
0h
1i
1j
1k
1l
1m
0n
1o
1p
0t
0s
0r
0u
1v
1w
1x
1y
1z
0{
1|
1}
1~
1!!
1"!
0&!
0%!
1$!
1'!
1(!
1)!
1*!
1+!
1,!
0-!
0.!
1/!
10!
11!
02!
16!
15!
14!
07!
08!
19!
1:!
1;!
0<!
1=!
1>!
0?!
0@!
1A!
1B!
1]
1\
0[
0Z
0Y
0X
0W
0V
1U
0T
1S
1R
1Q
1P
0O
1N
0M
0L
0K
1J
0I
0H
1G
0F
0E
1D
0C
1B
0A
1@
1?
0>
0=
$end
#50
09
06
b1001001110100110 #
#100
19
16
b101011001100011 !
b111101100001101 "
b10 ;
1Z
1Y
0U
1T
0R
1O
1L
1K
0J
1F
0D
1C
0?
1>
0=!
0>!
0*!
0+!
1{
1h
0e
0f
1-!
1.!
0~
1n
11
0-
0$!
1*
14
1g
03
0j
1.
1%!
0+
1&
1?!
0*
0/!
1c
1)
12!
0^
02
0m
1$!
0)
02!
1b
0(
01
0p
1^
1(
1`
10
#150
09
06
b1101000101110001 #
#200
19
16
b1000010001100101 !
b101001000010010 "
b11 ;
0\
1[
0Z
0Y
1X
0T
0Q
0O
0K
1J
0C
0@
0>
1=
1@!
1=!
1>!
17!
18!
1*!
1+!
0:!
00!
0'!
1u
0n
1e
1f
0d
04
0g
11
1p
00
0w
0,
1)
12!
1'
1<!
0%!
1+
06!
0(
09!
04!
0&
0?!
14!
16!
1*
1/!
05!
0^
1t
0`
1d
10
1w
0/
0z
1(
19!
1&
1?!
0$!
0%
0B!
15
0)
04!
06!
1s
0t
1/
1z
0.
0}
0'
1%
1B!
05
1r
0s
1.
1}
1-
0r
0-
#201
0:
07
#250
09
06
b1101011001111000 #
#300
19
16
b1100110100001101 !
b1111000101110110 "
b100 ;
1Z
1W
1V
1T
0S
1O
1M
1I
0G
0F
1D
1A
1>
0=!
0>!
10!
0(!
1n
0@!
0A!
1:!
0*!
0k
0l
12
1m
0+
1'
15
0%
01
0p
1&!
1)
14!
0&
1%
1+
1`
00
0w
1t
0/
0z
1s
0.
0}
1r
1-
#350
09
06
b11011111010000100 #
#400
19
16
b101011111101101 !
b1111011110001100 "
b101 ;
0[
1Y
0X
0W
0V
1U
1S
1R
1G
1F
1E
1C
0A
1@
0=
1@!
1A!
07!
08!
00!
0+!
0!!
0-!
0.!
0u
0n
0o
0h
13
1j
11
1p
10
1w
1$!
0*
1_
1%!
16!
0(
05
0%
0B!
15
0'
0<!
1*
1,
0t
0c
02
1/
1z
15!
1&
0s
1.
1}
0r
0-
#450
09
06
b10100111101111010 #
#500
19
16
b10010011000110 !
b1000010011000101 "
0$
b110 ;
1\
0Y
1V
0T
0S
0P
0O
0N
0L
1K
0I
0G
0D
0C
0@
1?
0>
0]
14
1g
0x
1h
1>!
18!
1+!
1(!
0{
0|
1o
0`
1r
0.
0&!
0%!
06!
04!
03
0j
0/
0d
13
1j
1%
1B!
1'
1<!
0*
0+
1-
00
05!
05
0&
#550
09
06
b1010100110001011 #
#600
19
16
b1111011111100101 !
b111001001110111 "
b111 ;
1[
1X
1W
0U
1S
0R
1P
1O
1N
0M
1L
0K
1G
1D
1C
1@
1>
1=
0>!
08!
0+!
1'!
0y
0e
0f
0:!
0;!
1-!
1.!
1~
1!!
1u
10
0_
0-
0"!
0$!
1*
15!
0'
1d
04
1s
1%!
16!
14!
0%
0B!
1'
0*
0/!
1.
03
0j
1&
0)
1_
0,
0)!
1c
1$!
15
1)
12
1&!
1+
#650
09
06
b10110101001011100 #
#700
19
16
b1101101110001111 !
b110100111110010 "
b1000 ;
0\
0Z
1U
1T
0S
1Q
0P
1K
1I
0G
0F
0B
1A
0?
1:!
1;!
01!
0-!
1{
1|
1x
1y
1n
0h
0i
17!
18!
1*!
1+!
0'!
0(!
0~
0!!
1k
1l
1e
1f
0d
14
0b
02
0m
1-
1"!
1,
1)!
0%!
0+
0,!
06!
1(
1j
0s
1/
0r
1/!
1^
05!
0&
0(
09!
0$!
0-
1%!
1b
01
0p
1*
0)
16!
0'
0<!
1`
00
0w
15!
1&
1t
0/
0z
1s
0.
0}
1r
1-
#750
09
06
b10100010110000001 #
#800
19
16
b111101011101000 !
b100111011000101 "
b1001 ;
1\
0[
1Z
0X
0W
0T
1S
1R
0O
0L
0K
0J
1G
1F
0D
1?
0=
0@!
0{
0|
1-!
0*!
0+!
1(!
0u
1i
0c
10
1w
0&!
1,!
0*
0/!
1.
1}
1%
1B!
05
1$!
0t
12
1m
0b
1/
1z
1)
0s
11
1p
0`
0.
00
#850
09
06
b1100100110101101 #
#900
19
16
b10100010111101 !
b101100000101101 "
1$
b1010 ;
1Y
1W
0V
0U
0S
0R
1P
1L
1J
1H
0F
0C
0@
0>
1]
04
0g
1=!
1>!
1u
0k
0l
0e
0f
0-!
1+!
1~
1!!
1|
0x
0y
0n
0o
1`
01
1s
0/
0r
0_
0%!
1/!
14
1g
1b
02
04!
0&
0?!
1d
13
14!
11
0$!
0,
1.
0w
1t
0)
1/
#950
09
06
b1000000011101011 #
#1000
19
16
b110001001100011 !
b1000011100001010 "
0$
b1011 ;
0\
1[
0Z
0W
1T
1S
1R
0Q
0P
0N
1M
1K
0J
0I
0H
1F
0E
1C
0A
1>
0]
04
0+!
0~
1{
0u
1n
1o
0i
1@!
07!
11!
1-!
1'!
1x
1y
1l
1e
1f
0d
14
0b
0s
0/
0z
1,
1*
0^
19!
0%
0B!
1c
0`
1w
0-
1%!
0*
0/!
0t
12
15
06!
1s
03
0.
0}
1'
1<!
1/
1z
1$!
1)
0s
05!
1r
1-
1&
1?!
1.
1}
0r
04!
1%
1B!
0-
05
#1050
09
06
b1110100101101101 #
#1100
19
16
b10000100100000 !
b100010110101010 "
1$
b1100 ;
1W
1U
0S
1N
0M
0L
0K
0F
1D
0C
0>
1]
04
0g
0'!
0(!
0{
1h
1i
0e
0@!
1+!
1~
0x
0y
1s
0/
1-
0%!
0%
14
1g
0c
13
1&!
0,
1+
02
1*
1/!
0$!
0)
#1150
09
06
b110011011001011 #
#1200
19
16
b11111010010110 !
b1011100000010011 "
b1101 ;
1\
0Y
1X
0W
0U
0T
0R
1Q
1P
1O
0N
1M
1K
1J
1H
0G
1E
0D
1C
1B
1A
1@
08!
01!
1*!
0v
1k
0h
0i
1@!
0=!
0:!
0;!
1(!
1y
0n
1e
04
0g
01
0s
0&!
15!
0'
1%
1c
03
1t
1^
16!
1'
1(
1/
0m
0.
1d
13
1b
11
#1250
09
06
b1111011010101010 #
#1300
19
16
b1101011001010011 !
b1101110101101011 "
b1110 ;
1Y
0X
1W
1V
1T
1R
0O
1N
1L
0J
1F
0E
0A
0?
1>
1=
0@!
0A!
0>!
10!
11!
0~
0|
0k
0e
0f
1;!
0-!
0.!
1'!
1x
1u
1v
1n
01
0p
0t
10
1,
1$!
0*
05!
14
1g
12
1m
1r
0^
14!
15
0(
0b
0&
02!
1`
00
0w
1^
11
1p
0`
1(
1t
0/
0z
10
1w
0t
1s
1.
1/
1z
0s
0.
#1350
09
06
b11011001110111111 #
#1400
19
16
b100101000000010 !
b11111010101110 "
b1111 ;
0\
1Z
0V
1U
0T
1S
1O
0N
0M
0L
0H
0F
0B
1A
0@
0=
17!
18!
00!
01!
1-!
1.!
0u
1A!
1=!
1>!
1:!
0*!
0+!
0'!
1~
1|
1k
1f
0d
02
0m
0r
0,
1%!
0+
0'
0<!
04!
1&
05
00
0$!
12!
06!
0(
09!
16!
0%
15!
0/!
1b
03
01
0p
1$!
0&
0?!
14!
1)
1`
10
1%
#1450
09
06
b1000100010110001 #
#1500
19
16
b111001011001111 !
b100100100100011 "
0$
b10000 ;
1\
0Z
0Y
0U
1T
0S
0R
0P
0O
1N
1L
1J
1I
1F
1E
0A
1@
1?
0]
04
10!
11!
1{
0f
0=!
0>!
0-!
1*!
1+!
1'!
1,
0%!
1+
1/!
1&
1?!
1d
1.
0^
0)
02!
1^
13
0$!
1)
12!
0^
1(
19!
06!
1'
1<!
05!
0&
#1550
09
06
b1011101111110010 #
#1600
19
16
b101011001010 !
b100110000111100 "
b10001 ;
0\
0[
1Z
1Y
1X
0T
1R
0L
0J
1A
0@
0?
0>
1=!
1>!
0:!
07!
00!
01!
1-!
0'!
1u
0n
0o
1h
1i
1f
0d
0c
11
1p
00
0w
0,
1*
1^
0)
0'
04!
1&
0%
1t
12
1m
0b
0/
0z
1s
01
0.
0}
1r
0-
0"!
1_
1,
#1650
09
06
b101011100000110 #
#1700
19
16
b110000110001010 !
b1011001101000001 "
b10010 ;
1\
0Z
0Y
0X
0W
1V
1T
1S
0R
0Q
1P
1O
0N
1M
0F
1D
0C
0A
1?
1>
0;!
0(!
1@!
17!
11!
0-!
0x
0u
1n
1o
0k
1e
14
02
0`
11
1w
1/
1z
0*
0^
1%
1&!
15!
0&
0?!
0+
0,!
0s
0t
0/
1.
1}
1%!
14!
0%
0B!
1*
0r
1-
1"!
15
0_
0,
#1750
09
06
b10001010011001011 #
#1800
19
16
b1111001101111000 !
b1001010001001 "
1$
b10011 ;
1Y
0V
1U
0T
0O
0M
0K
1H
1G
1F
0E
1C
1@
1=
1]
04
0g
07!
08!
0*!
0+!
1x
1u
0h
1:!
1;!
1'!
1(!
0n
0o
1`
01
0&!
1,
05!
1'
03
1/
1,!
16!
0(
1d
13
0'
0<!
1&
1?!
0w
1t
04!
15!
0&
0?!
1%
1B!
0/
0z
1s
05
14!
0%
0B!
0.
0}
1r
15
0-
0"!
1_
0,
0)!
1&!
1+
#1850
09
06
b10000011000000010 #
#1900
19
16
b110010110110110 !
b1111100111000110 "
0$
b10100 ;
0\
1[
1Z
0Y
1V
1T
0S
1Q
1O
1N
1M
1K
1J
0I
0F
1E
0C
1B
0@
0=
0]
14
1g
17!
18!
1-!
0~
0!!
0l
0i
0=!
0>!
0:!
0;!
10!
1+!
0'!
0(!
1o
0e
04
0`
1,
1)!
0%!
1)
1'
1<!
1&
1?!
1c
1b
1-
1"!
06!
1(
0d
03
0'
11
12
10
1w
0t
1/
1z
0s
1.
1}
0r
0-
#1950
09
06
b10101111101111100 #
